[
    {"handName":"Fingerbang",
   "animated":true,
   "filePath":"resources/Pause/Fingerbang/",
   "frameDelay":10
  },
  {"handName":"Middle Finger",
   "animated":false,
   "filePath":"resources/Pause/character_hand_fingerbang_1.png"
 }

]