[
  {
	"hatName": "Default",
    "filePathBody": "resources/Justin/character_body_right.png",
  },
  {
	"hatName": "CrossedArms",
    "filePathBody": "resources/Justin/character_body_crossed_right.png"
  },
  {
	"hatName": "Suit",
    "filePathBody": "resources/Justin/character_body_suit_right.png"
  },
  {
	"hatName": "SuitCrossed",
    "filePathBody": "resources/Justin/character_body_suit_crossed_right.png"
  }
]